{
	"dependencies": "netherendingores",
	"populate": {
		"end-ambrosium": {
			"distribution": "uniform",
			"generator": {
				"block": {
					"name": "netherendingores:ore_end_modded_2",
					"properties": {
						"blocks": "ambrosium_ore"
					}
				},
				"material": "minecraft:end_stone",
				"cluster-size": 2
			},
			"cluster-count": 3,
			"min-height": 10,
			"max-height": 55,
			"retrogen": "true",
			"biome": "all",
			"dimension": {
				"restriction": "whitelist",
				"value": [
					1
				]
			}
		}
	}
}
