{
	"dependencies": "netherendingores",
	"populate": {
		"nether-zanite": {
			"distribution": "uniform",
			"generator": {
				"block": {
					"name": "netherendingores:ore_nether_modded_2",
					"properties": {
						"blocks": "zanite_ore"
					}
				},
				"material": "minecraft:netherrack",
				"cluster-size": 2
			},
			"cluster-count": 2,
			"min-height": 10,
			"max-height": 118,
			"retrogen": "true",
			"biome": "all",
			"dimension": {
				"restriction": "whitelist",
				"value": [
					-1
				]
			}
		}
	}
}
